a7d68b59e4bb01223d0e75f138237827436f81880c0ab1d6e26d3ee45b720085  .txt
e395d7b4aa29b6a240c0f4a0ef321fd50f08cd23614fb424db97110e9bada738  .docx
d0bfeea7d0863177c2b053aabb8a97f378a0a9f291ab5b32e1afa40166c2e480  .pdf
882143d637be5d55e464bb1764bdddf59a333fdfb6557075f3a559bfe3b80164  .png
